…
                  as.numeric(),
                #Rating = replace(Rating, (Rating =="-" |Rating == "NEW"), "0") %>% as.numeric(Rating),
                #Votes = replace(Votes, Votes == "-", "0") %>% as.numeric(Votes),
                #Reviews = replace(Reviews, Reviews == "-", "0") %>% as.numeric(Reviews),
                Rating = as.numeric(Rating),
                Votes = as.numeric(Votes),
                Reviews = as.numeric(Reviews),
                Delivery_Time = gsub('[ minutes]', '', Delivery_Time) %>% 
                  as.numeric()
              ) %>%
              na.omit()
clean_data
```

    ## # A tibble: 8,782 x 9
    ##    Restaurant Location  Cuisines Average_Cost Minimum_Order Rating Votes Reviews
    ##    <chr>      <fct>     <chr>           <dbl>         <dbl>  <dbl> <dbl>   <dbl>
    ##  1 ID_6321    FTI Coll~ Fast Fo~          200            50    3.5    12       4
    ##  2 ID_2882    Sector 3~ Ice Cre~          100            50    3.5    11       4
    ##  3 ID_1595    Mumbai C~ Italian~          150            50    3.6    99      30
    ##  4 ID_5929    Sector 1~ Mughlai~          250            99    3.7   176      95
    ##  5 ID_6123    Rmz Cent~ Cafe, B~          200            99    3.2   521     235
    ##  6 ID_5221    Rmz Cent~ South I~          150            50    3.8    46      18
    ##  7 ID_3777    Mumbai C~ Beverag~          150            50    3.7   108      31
    ##  8 ID_745     Delhi Un~ Chinese~          650            50    4    1731    1235
    ##  9 ID_2970    Delhi Un~ Mithai,~          100            50    3.9   110      26
    ## 10 ID_3474    Sector 1~ Fast Fo~          200            50    3.9   562     294
    ## # ... with 8,772 more rows, and 1 more variable: Delivery_Time <dbl>
…
